%YAML 1.1
%TAG !u! tag:unity3d.com,2011:
--- !u!1001 &497083000678214043
PrefabInstance:
  m_ObjectHideFlags: 0
  serializedVersion: 2
  m_Modification:
    m_TransformParent: {fileID: 0}
    m_Modifications:
    - target: {fileID: 2263759283273323645, guid: 0f2f8b747be20db4cb563a368526099c,
        type: 3}
      propertyPath: player
      value: 
      objectReference: {fileID: 0}
    - target: {fileID: 2263759283273323645, guid: 0f2f8b747be20db4cb563a368526099c,
        type: 3}
      propertyPath: gameEnding
      value: 
      objectReference: {fileID: 0}
    - target: {fileID: 3758589308895723967, guid: 0f2f8b747be20db4cb563a368526099c,
        type: 3}
      propertyPath: waypoints.Array.data[0]
      value: 
      objectReference: {fileID: 0}
    - target: {fileID: 3758589308895723967, guid: 0f2f8b747be20db4cb563a368526099c,
        type: 3}
      propertyPath: waypoints.Array.data[1]
      value: 
      objectReference: {fileID: 0}
    - target: {fileID: 4927362777767206108, guid: 0f2f8b747be20db4cb563a368526099c,
        type: 3}
      propertyPath: m_RootOrder
      value: 0
      objectReference: {fileID: 0}
    - target: {fileID: 4927362777767206108, guid: 0f2f8b747be20db4cb563a368526099c,
        type: 3}
      propertyPath: m_LocalPosition.x
      value: -5.3
      objectReference: {fileID: 0}
    - target: {fileID: 4927362777767206108, guid: 0f2f8b747be20db4cb563a368526099c,
        type: 3}
      propertyPath: m_LocalPosition.y
      value: 0
      objectReference: {fileID: 0}
    - target: {fileID: 4927362777767206108, guid: 0f2f8b747be20db4cb563a368526099c,
        type: 3}
      propertyPath: m_LocalPosition.z
      value: -3.1
      objectReference: {fileID: 0}
    - target: {fileID: 4927362777767206108, guid: 0f2f8b747be20db4cb563a368526099c,
        type: 3}
      propertyPath: m_LocalRotation.w
      value: 1
      objectReference: {fileID: 0}
    - target: {fileID: 4927362777767206108, guid: 0f2f8b747be20db4cb563a368526099c,
        type: 3}
      propertyPath: m_LocalRotation.x
      value: 0
      objectReference: {fileID: 0}
    - target: {fileID: 4927362777767206108, guid: 0f2f8b747be20db4cb563a368526099c,
        type: 3}
      propertyPath: m_LocalRotation.y
      value: 0
      objectReference: {fileID: 0}
    - target: {fileID: 4927362777767206108, guid: 0f2f8b747be20db4cb563a368526099c,
        type: 3}
      propertyPath: m_LocalRotation.z
      value: 0
      objectReference: {fileID: 0}
    - target: {fileID: 4927362777767206108, guid: 0f2f8b747be20db4cb563a368526099c,
        type: 3}
      propertyPath: m_LocalEulerAnglesHint.x
      value: 0
      objectReference: {fileID: 0}
    - target: {fileID: 4927362777767206108, guid: 0f2f8b747be20db4cb563a368526099c,
        type: 3}
      propertyPath: m_LocalEulerAnglesHint.y
      value: 0
      objectReference: {fileID: 0}
    - target: {fileID: 4927362777767206108, guid: 0f2f8b747be20db4cb563a368526099c,
        type: 3}
      propertyPath: m_LocalEulerAnglesHint.z
      value: 0
      objectReference: {fileID: 0}
    - target: {fileID: 7067089961914141015, guid: 0f2f8b747be20db4cb563a368526099c,
        type: 3}
      propertyPath: m_Name
      value: Ghost
      objectReference: {fileID: 0}
    m_RemovedComponents: []
  m_SourcePrefab: {fileID: 100100000, guid: 0f2f8b747be20db4cb563a368526099c, type: 3}
